# Fdb version 3
["pdflatex"] 1566826123 "boolean_algebra_of_sets.tex" "boolean_algebra_of_sets.pdf" "boolean_algebra_of_sets" 1566826123
  "/dev/null" 1566802842 0 d41d8cd98f00b204e9800998ecf8427e ""
  "/usr/share/texmf-dist/fonts/type1/public/amsfonts/cm/cmmi10.pfb" 1557554374 36299 5f9df58c2139e7edcf37c8fca4bd384d ""
  "/usr/share/texmf-dist/fonts/type1/public/amsfonts/cm/cmmi7.pfb" 1557554374 36281 c355509802a035cadc5f15869451dcee ""
  "/usr/share/texmf-dist/fonts/type1/public/amsfonts/cm/cmr10.pfb" 1557554374 35752 024fb6c41858982481f6968b5fc26508 ""
  "/usr/share/texmf-dist/fonts/type1/public/amsfonts/cm/cmsy10.pfb" 1557554374 32569 5e5ddc8df908dea60932f3c484a54c0d ""
  "/usr/share/texmf-dist/tex/context/base/mkii/supp-pdf.mkii" 1557554374 71627 94eb9990bed73c364d7f53f960cc8c5b ""
  "/usr/share/texmf-dist/tex/generic/ifxetex/ifxetex.sty" 1557554374 1458 43ab4710dc82f3edeabecd0d099626b2 ""
  "/usr/share/texmf-dist/tex/generic/oberdiek/etexcmds.sty" 1557554374 7612 729a8cc22a1ee0029997c7f74717ae05 ""
  "/usr/share/texmf-dist/tex/generic/oberdiek/ifluatex.sty" 1557554374 7324 2310d1247db0114eb4726807c8837a0e ""
  "/usr/share/texmf-dist/tex/generic/oberdiek/ifpdf.sty" 1557554374 1300 96620a7d94bc0ceb261d968770ce8315 ""
  "/usr/share/texmf-dist/tex/generic/oberdiek/infwarerr.sty" 1557554374 8253 473e0e41f9adadb1977e8631b8f72ea6 ""
  "/usr/share/texmf-dist/tex/generic/oberdiek/kvdefinekeys.sty" 1557554374 5152 b67a3a964ad9851e095110c854a1d461 ""
  "/usr/share/texmf-dist/tex/generic/oberdiek/kvsetkeys.sty" 1557554374 14040 ac8866aac45982ac84021584b0abb252 ""
  "/usr/share/texmf-dist/tex/generic/oberdiek/ltxcmds.sty" 1557554374 18425 5b3c0c59d76fac78978b5558e83c1f36 ""
  "/usr/share/texmf-dist/tex/generic/oberdiek/pdftexcmds.sty" 1557554374 20457 0d2e642faacbb41c9d72690f8cc529cd ""
  "/usr/share/texmf-dist/tex/generic/pgf/basiclayer/pgfcore.code.tex" 1557554374 969 03f6c464fd951d8725b3a4959f4c6de0 ""
  "/usr/share/texmf-dist/tex/generic/pgf/basiclayer/pgfcorearrows.code.tex" 1557554374 43820 bc6cf5aa959817914ace33f5c6232161 ""
  "/usr/share/texmf-dist/tex/generic/pgf/basiclayer/pgfcoreexternal.code.tex" 1557554374 19327 d5d8b64d8e8902e0467e95a8e7c7696a ""
  "/usr/share/texmf-dist/tex/generic/pgf/basiclayer/pgfcoregraphicstate.code.tex" 1557554374 6038 d639d02574be9a72f3c602c2a3510e02 ""
  "/usr/share/texmf-dist/tex/generic/pgf/basiclayer/pgfcoreimage.code.tex" 1557554374 6948 284bbe3c9a7ca0a826c1c03895e69b9f ""
  "/usr/share/texmf-dist/tex/generic/pgf/basiclayer/pgfcorelayers.code.tex" 1557554374 4883 a6f3eb1f71d8c4affaf43a169828b043 ""
  "/usr/share/texmf-dist/tex/generic/pgf/basiclayer/pgfcoreobjects.code.tex" 1557554374 2544 3b1b198fd49f01e328adc9162a07b213 ""
  "/usr/share/texmf-dist/tex/generic/pgf/basiclayer/pgfcorepathconstruct.code.tex" 1557554374 44195 134d5eb267e64d2a6b6dc75008e7c5fd ""
  "/usr/share/texmf-dist/tex/generic/pgf/basiclayer/pgfcorepathprocessing.code.tex" 1557554374 17311 3092579be20ef0f229c42ad3f09da85c ""
  "/usr/share/texmf-dist/tex/generic/pgf/basiclayer/pgfcorepathusage.code.tex" 1557554374 21302 d6c4b340248adbe650ebf6ca76bdccca ""
  "/usr/share/texmf-dist/tex/generic/pgf/basiclayer/pgfcorepatterns.code.tex" 1557554374 9541 9d1ee06aeaf948a30f150e450eb2d944 ""
  "/usr/share/texmf-dist/tex/generic/pgf/basiclayer/pgfcorepoints.code.tex" 1557554374 35255 97ed2fc851a68f753ba47b7329c64cd6 ""
  "/usr/share/texmf-dist/tex/generic/pgf/basiclayer/pgfcorequick.code.tex" 1557554374 2965 502761b60f43ab2de5ecb2f4625163ae ""
  "/usr/share/texmf-dist/tex/generic/pgf/basiclayer/pgfcorerdf.code.tex" 1557554374 5196 f8c5c775d4d6e2cb050392127cabda72 ""
  "/usr/share/texmf-dist/tex/generic/pgf/basiclayer/pgfcorescopes.code.tex" 1557554374 20769 880132a4052c1f4e99080e076592048d ""
  "/usr/share/texmf-dist/tex/generic/pgf/basiclayer/pgfcoreshade.code.tex" 1557554374 21441 8406a93495c4d3eb13cc93ff27ed5594 ""
  "/usr/share/texmf-dist/tex/generic/pgf/basiclayer/pgfcoretransformations.code.tex" 1557554374 21989 266e83c51fe41eb8b8d5e6896dc71cc1 ""
  "/usr/share/texmf-dist/tex/generic/pgf/basiclayer/pgfcoretransparency.code.tex" 1557554374 8842 5cc856e132fac404805c6da091779283 ""
  "/usr/share/texmf-dist/tex/generic/pgf/frontendlayer/tikz/libraries/tikzlibrarytopaths.code.tex" 1557554374 11605 3cfbfe82478675de992de878ae30cba4 ""
  "/usr/share/texmf-dist/tex/generic/pgf/frontendlayer/tikz/tikz.code.tex" 1557554374 183429 981b5b2f94d03d6b4fb30ea9ab9200c8 ""
  "/usr/share/texmf-dist/tex/generic/pgf/libraries/pgflibraryplothandlers.code.tex" 1557554374 32995 a4d54c043ae5274ceaaddeb36ad43a6f ""
  "/usr/share/texmf-dist/tex/generic/pgf/math/pgfmath.code.tex" 1557554374 520 910e22995dad318235ba8e2fb536bf3a ""
  "/usr/share/texmf-dist/tex/generic/pgf/math/pgfmathcalc.code.tex" 1557554374 13416 940ea6971d7a65dc440d3479939c66ae ""
  "/usr/share/texmf-dist/tex/generic/pgf/math/pgfmathfloat.code.tex" 1557554374 95102 474fa5793f7f3067e17a5df9b98218c1 ""
  "/usr/share/texmf-dist/tex/generic/pgf/math/pgfmathfunctions.base.code.tex" 1557554374 9375 5adc70f722abd29fc250d59e0694b548 ""
  "/usr/share/texmf-dist/tex/generic/pgf/math/pgfmathfunctions.basic.code.tex" 1557554374 22069 7c21c42b15718ce922f36235be360490 ""
  "/usr/share/texmf-dist/tex/generic/pgf/math/pgfmathfunctions.code.tex" 1557554374 8210 a7be5b52ef3d2c087b7dc3d52898b67e ""
  "/usr/share/texmf-dist/tex/generic/pgf/math/pgfmathfunctions.comparison.code.tex" 1557554374 3534 c7f28fbac13616513e513efe93b8569b ""
  "/usr/share/texmf-dist/tex/generic/pgf/math/pgfmathfunctions.integerarithmetics.code.tex" 1557554374 3168 6189b7a28d77f4af65d3a14e7f03c083 ""
  "/usr/share/texmf-dist/tex/generic/pgf/math/pgfmathfunctions.misc.code.tex" 1557554374 9289 261407875b9dbb0194691c3eb893610f ""
  "/usr/share/texmf-dist/tex/generic/pgf/math/pgfmathfunctions.random.code.tex" 1557554374 7078 946ddf4a7e57219b6afdbad98eb6731b ""
  "/usr/share/texmf-dist/tex/generic/pgf/math/pgfmathfunctions.round.code.tex" 1557554374 2942 88413c69264c367e851538882cebd4ab ""
  "/usr/share/texmf-dist/tex/generic/pgf/math/pgfmathfunctions.trigonometric.code.tex" 1557554374 92284 dcf023dbaa84e6c50e11c2f79fe8cfa6 ""
  "/usr/share/texmf-dist/tex/generic/pgf/math/pgfmathparser.code.tex" 1557554374 36120 4aaaf2a5a988fdb79e316766ce090110 ""
  "/usr/share/texmf-dist/tex/generic/pgf/math/pgfmathutil.code.tex" 1557554374 7099 f44d505bae6c7c2b933cdd63441db4b9 ""
  "/usr/share/texmf-dist/tex/generic/pgf/modules/pgfmodulematrix.code.tex" 1557554374 20850 69672e3a68af93b0052e22743ab29325 ""
  "/usr/share/texmf-dist/tex/generic/pgf/modules/pgfmoduleplot.code.tex" 1557554374 16105 ad277a81d51151a43eada2f59e9c7f63 ""
  "/usr/share/texmf-dist/tex/generic/pgf/modules/pgfmoduleshapes.code.tex" 1557554374 43225 550a85f34e942cf510108872e6d17824 ""
  "/usr/share/texmf-dist/tex/generic/pgf/pgf.revision.tex" 1557554374 463 2e8ae5ae7338c3efc0d56a1c648a2938 ""
  "/usr/share/texmf-dist/tex/generic/pgf/systemlayer/pgf.cfg" 1557554374 929 c7e63c9d336acc04681ebf5d5974ff79 ""
  "/usr/share/texmf-dist/tex/generic/pgf/systemlayer/pgfsys-common-pdf.def" 1557554374 5554 eaa8269939dc6788f137cf082148c630 ""
  "/usr/share/texmf-dist/tex/generic/pgf/systemlayer/pgfsys-pdftex.def" 1557554374 13467 81cbde9036aeefde6ced72c35f65a11e ""
  "/usr/share/texmf-dist/tex/generic/pgf/systemlayer/pgfsys.code.tex" 1557554374 60336 26aaa566685b708e5bbad33b1fea85b6 ""
  "/usr/share/texmf-dist/tex/generic/pgf/systemlayer/pgfsysprotocol.code.tex" 1557554374 1895 a804dfc15a55439296d72fd96ed29ac7 ""
  "/usr/share/texmf-dist/tex/generic/pgf/systemlayer/pgfsyssoftpath.code.tex" 1557554374 7793 fb7bd1e1f7162b9073fa1d5356c99d44 ""
  "/usr/share/texmf-dist/tex/generic/pgf/utilities/pgffor.code.tex" 1557554374 22321 e57de05109d919549a27eaaf05c180fc ""
  "/usr/share/texmf-dist/tex/generic/pgf/utilities/pgfkeys.code.tex" 1557554374 36455 3b0b1cf51efce44b8791b93c27bbca48 ""
  "/usr/share/texmf-dist/tex/generic/pgf/utilities/pgfkeysfiltered.code.tex" 1557554374 33347 679274d4aa67c6bc8f5f234caa49367d ""
  "/usr/share/texmf-dist/tex/generic/pgf/utilities/pgfrcs.code.tex" 1557554374 2311 e273ccf1220640ccce91d49a21bd5eec ""
  "/usr/share/texmf-dist/tex/generic/pgf/utilities/pgfutil-common-lists.tex" 1557554374 6833 114eda2cf1d348e0e7e477a1a4dc1941 ""
  "/usr/share/texmf-dist/tex/generic/pgf/utilities/pgfutil-common.tex" 1557554374 26409 498c460a45ec6d31d3794cb500da29ed ""
  "/usr/share/texmf-dist/tex/generic/pgf/utilities/pgfutil-latex.def" 1557554374 5845 c578abb59cb8ad0a9156fdb1b59cfa38 ""
  "/usr/share/texmf-dist/tex/generic/xkeyval/keyval.tex" 1557554374 2725 fc34ef3ccb37ba15a640e8fca6190bca ""
  "/usr/share/texmf-dist/tex/generic/xkeyval/xkeyval.tex" 1557554374 19231 26434a5656c684f5ffb1f26f98006baa ""
  "/usr/share/texmf-dist/tex/generic/xkeyval/xkvutils.tex" 1557554374 7677 6f5ce7c1124cad7ec57d05b2562bd8fe ""
  "/usr/share/texmf-dist/tex/latex/base/article.cls" 1557554374 19933 3097d1b31d3c45dc957096f554529032 ""
  "/usr/share/texmf-dist/tex/latex/base/size10.clo" 1557554374 8294 6d6e23d5169c0d89d173f6c7e08a005a ""
  "/usr/share/texmf-dist/tex/latex/graphics-cfg/color.cfg" 1557554374 1213 620bba36b25224fa9b7e1ccb4ecb76fd ""
  "/usr/share/texmf-dist/tex/latex/graphics-cfg/graphics.cfg" 1557554374 1224 978390e9c2234eab29404bc21b268d1e ""
  "/usr/share/texmf-dist/tex/latex/graphics-def/pdftex.def" 1557554374 17334 520b9b85ad8a2a48eda3f643e27a5179 ""
  "/usr/share/texmf-dist/tex/latex/graphics/graphics.sty" 1557554374 15272 5a97061616e0c8b2aa79c6615ff769f4 ""
  "/usr/share/texmf-dist/tex/latex/graphics/graphicx.sty" 1557554374 9063 d0a305975932762117cd1f06a582f896 ""
  "/usr/share/texmf-dist/tex/latex/graphics/trig.sty" 1557554374 3977 cb9221976ed8a183afad65b59aa8629a ""
  "/usr/share/texmf-dist/tex/latex/latexconfig/epstopdf-sys.cfg" 1557554374 678 4792914a8f45be57bb98413425e4c7af ""
  "/usr/share/texmf-dist/tex/latex/ms/everyshi.sty" 1557554374 3878 6aa7c08ff2621006e0603349e40a30a8 ""
  "/usr/share/texmf-dist/tex/latex/oberdiek/epstopdf-base.sty" 1557554374 12095 5337833c991d80788a43d3ce26bd1c46 ""
  "/usr/share/texmf-dist/tex/latex/oberdiek/grfext.sty" 1557554374 7075 2fe3d848bba95f139de11ded085e74aa ""
  "/usr/share/texmf-dist/tex/latex/oberdiek/kvoptions.sty" 1557554374 22417 1d9df1eb66848aa31b18a593099cf45c ""
  "/usr/share/texmf-dist/tex/latex/pgf/basiclayer/pgf.sty" 1557554374 1090 d20f587ea9464d1841bd0d13d3ff9856 ""
  "/usr/share/texmf-dist/tex/latex/pgf/basiclayer/pgfcore.sty" 1557554374 410 5bf12ea7330e5f12c445332a4fe9a263 ""
  "/usr/share/texmf-dist/tex/latex/pgf/compatibility/pgfcomp-version-0-65.sty" 1557554374 21013 e98e1aaaf40d31632787c2bd25d24b57 ""
  "/usr/share/texmf-dist/tex/latex/pgf/compatibility/pgfcomp-version-1-18.sty" 1557554374 989 2cf3da8e8ec55131c49389428d565e37 ""
  "/usr/share/texmf-dist/tex/latex/pgf/frontendlayer/tikz.sty" 1557554374 339 592cf35cba3d400082b8a9a5d0199d70 ""
  "/usr/share/texmf-dist/tex/latex/pgf/math/pgfmath.sty" 1557554374 306 0796eafca5e159e6ec2167a6d22d81b1 ""
  "/usr/share/texmf-dist/tex/latex/pgf/systemlayer/pgfsys.sty" 1557554374 443 0b2e781830192df35c0fd357cf13e26e ""
  "/usr/share/texmf-dist/tex/latex/pgf/utilities/pgffor.sty" 1557554374 348 8927fde343487e003b01a4c2ca34073b ""
  "/usr/share/texmf-dist/tex/latex/pgf/utilities/pgfkeys.sty" 1557554374 274 4cad6e665cc93ac2ac979039a94fa1e1 ""
  "/usr/share/texmf-dist/tex/latex/pgf/utilities/pgfrcs.sty" 1557554374 325 2bcd023400636339210573e2b3ee298b ""
  "/usr/share/texmf-dist/tex/latex/standalone/standalone.cfg" 1557556602 1015 662b4d7ad816b857a598284525f5c75e ""
  "/usr/share/texmf-dist/tex/latex/standalone/standalone.cls" 1557556602 28890 df75e6d37f47b7e27bff3f37375336b3 ""
  "/usr/share/texmf-dist/tex/latex/tools/shellesc.sty" 1557554374 3268 77605a04b5525f60d58f55c47c0771c5 ""
  "/usr/share/texmf-dist/tex/latex/xcolor/xcolor.sty" 1557554374 55589 34128738f682d033422ca125f82e5d62 ""
  "/usr/share/texmf-dist/tex/latex/xkeyval/xkeyval.sty" 1557554374 4962 9c1069474ff71dbc47d5006555e352d3 ""
  "/usr/share/texmf-dist/web2c/texmf.cnf" 1557554374 33301 a3134070eacafb10b1f371612ce2650d ""
  "/var/lib/texmf/fonts/map/pdftex/updmap/pdftex.map" 1562688901 3145550 49e3f5be7cba801d0672ed2441c3a425 ""
  "/var/lib/texmf/web2c/pdftex/pdflatex.fmt" 1562688888 7979415 6aea7561f6855bcdf6fab366967cfa45 ""
  "boolean_algebra_of_sets.aux" 1566826123 8 a94a2480d3289e625eea47cd1b285758 "pdflatex"
  "boolean_algebra_of_sets.tex" 1566826122 8303 d917c82f256e6bb33bc1d53b95a4b78f ""
  (generated)
  "boolean_algebra_of_sets.pdf"
  "boolean_algebra_of_sets.aux"
  "boolean_algebra_of_sets.log"
